<?xml version="1.0" encoding="UTF-8"?>
<session version="1.0">
<refactoring accessors="true" comment="Delete element from project &apos;JavaAdvanced&apos;&#x0D;&#x0A;- Original project: &apos;JavaAdvanced&apos;&#x0D;&#x0A;- Original element: &apos;JavaAdvanced/src/threadAndSynchronization&apos;" description="Delete element" element1="/src&lt;threadAndSynchronization" elements="1" flags="589830" id="org.eclipse.jdt.ui.delete" resources="0" stamp="1448871928998" subPackages="false" version="1.0"/>
</session>